"groups"	"sample"
"Control"	"GSM2795140"
"Control"	"GSM2795141"
"Control"	"GSM2795142"
"Control"	"GSM2795143"
"Moderate_Subacute"	"GSM2795144"
"Moderate_Subacute"	"GSM2795145"
"Moderate_Subacute"	"GSM2795146"
"Moderate_Subacute"	"GSM2795147"
"Moderate_Acute"	"GSM2795152"
"Moderate_Acute"	"GSM2795153"
"Moderate_Acute"	"GSM2795154"
"Moderate_Acute"	"GSM2795155"
