"groups"	"sample"
"Control"	"GSM3899755"
"Control"	"GSM3899756"
"Control"	"GSM3899757"
"Control"	"GSM3899758"
"Moderate_Acute"	"GSM3899759"
"Moderate_Acute"	"GSM3899760"
"Moderate_Acute"	"GSM3899761"
